taskd
…
## Parsed with column specification:
## cols(
##   SEQN = col_integer(),
##   URXUMA = col_double(),
##   LBXGH = col_double(),
##   DIQ010 = col_integer(),
##   PAQ706 = col_integer(),
##   RIDAGEYR = col_integer(),
##   BMXBMI = col_double()
## )

rename(raw_data2, ID = SEQN, albumin = URXUMA, a1c_hemoglobin = LBXGH, diagnoses = DIQ010, physical_activity= PAQ706, age = RIDAGEYR, BMI = BMXBMI)

## # A tibble: 8,291 x 7
##       ID albumin a1c_hemoglobin diagnoses physical_activity   age   BMI
##    <int>   <dbl>          <dbl>     <int>             <int> <int> <dbl>
##  1 73557     4.3           13.9         1                NA    69  26.7
##  2 73558   153.0            9.1         1                NA    54  28.6
##  3 73559    11.9            8.9         1                NA    72  28.9
##  4 73560    16.0             NA         2                 5     9  17.1
##  5 73561   255.0            4.9         2                NA    73  19.7
##  6 73562   123.0            5.5         2                NA    56  41.7
##  7 73564    19.0            5.5         2                NA    61  35.7
##  8 73566     1.3            5.4         2                NA    56  26.5
##  9 73567    35.0            5.2         2                NA    65  22.0
## 10 73568    25.0            5.2         2                NA    26  20.3
## # ... with 8,281 more rows
…
